// Jest Snapshot v1, https://goo.gl/fbAQLP

exports[`utils #clone returns a copy of a nested object with more than MAX_CLONE_LEVEL levels 1`] = `
{
  "a": {
    "b": {
      "c": {
        "d": {
          "e": "...",
        },
      },
    },
  },
}
`;

exports[`utils #clone returns a copy of an AxiosError 1`] = `
{
  "address": "127.0.0.1",
  "cause": {
    "address": "127.0.0.1",
    "code": "ECONNREFUSED",
    "errno": -111,
    "message": "connect ECONNREFUSED 127.0.0.1:1234",
    "port": 1234,
    "stack": "Error: connect ECONNREFUSED 127.0.0.1:1234
    at TCPConnectWrap.afterConnect [as oncomplete] (node:net:1595:16)",
    "syscall": "connect",
  },
  "code": "ECONNREFUSED",
  "config": {
    "adapter": [
      "xhr",
      "http",
    ],
    "data": "{"secret_email":">> sensitive <<"}",
    "env": {
      "Blob": undefined,
      "FormData": undefined,
    },
    "headers": {
      "Accept": "application/json, text/plain, */*",
      "Accept-Encoding": "gzip, compress, deflate, br",
      "Content-Length": "30",
      "Content-Type": "application/json",
      "User-Agent": "axios/1.2.2",
      "secret_token": ">> sensitive <<",
    },
    "maxBodyLength": -1,
    "maxContentLength": -1,
    "method": "post",
    "params": {
      "_q": "{"secret_token":">> sensitive <<"}",
    },
    "timeout": 0,
    "transformRequest": [
      undefined,
    ],
    "transformResponse": [
      undefined,
    ],
    "transitional": {
      "clarifyTimeoutError": false,
      "forcedJSONParsing": true,
      "silentJSONParsing": true,
    },
    "url": "http://localhost:1234/invalid",
    "validateStatus": undefined,
    "xsrfCookieName": ">> sensitive <<",
    "xsrfHeaderName": "X-XSRF-TOKEN",
  },
  "errno": -111,
  "message": "connect ECONNREFUSED 127.0.0.1:1234",
  "name": "Error",
  "port": 1234,
  "request": ">> skipped <<",
  "stack": "Error: connect ECONNREFUSED 127.0.0.1:1234
    at Function.Object.<anonymous>.AxiosError.from (/home/gilles/development/getanthill/telemetry/node_modules/axios/lib/core/AxiosError.js:89:14)
    at RedirectableRequest.handleRequestError (/home/gilles/development/getanthill/telemetry/node_modules/axios/lib/adapters/http.js:533:25)
    at RedirectableRequest.emit (node:events:518:28)
    at ClientRequest.eventHandlers.<computed> (/home/gilles/development/getanthill/telemetry/node_modules/follow-redirects/index.js:14:24)
    at ClientRequest.emit (node:events:518:28)
    at Socket.socketErrorListener (node:_http_client:495:9)
    at Socket.emit (node:events:518:28)
    at emitErrorNT (node:internal/streams/destroy:169:8)
    at emitErrorCloseNT (node:internal/streams/destroy:128:3)
    at processTicksAndRejections (node:internal/process/task_queues:82:21)",
  "syscall": "connect",
}
`;

exports[`utils #clone returns a copy of an object with invalid JSON stringified object 1`] = `
{
  "data": ">> sensitive <<",
}
`;
